Split a data frame into a named list by grouping columns — split_by • daos
…
#>  8 chevrolet    corvette     6.2  2008     8 manu… r        16    26 p     2sea…
#>  9 chevrolet    corvette     6.2  2008     8 auto… r        15    25 p     2sea…
#> 10 chevrolet    corvette     7    2008     8 manu… r        15    24 p     2sea…
#> 11 chevrolet    k1500 tah…   5.3  2008     8 auto… 4        14    19 r     suv  
#> 12 chevrolet    k1500 tah…   5.3  2008     8 auto… 4        11    14 e     suv  
#> 13 chevrolet    k1500 tah…   5.7  1999     8 auto… 4        11    15 r     suv  
#> 14 chevrolet    k1500 tah…   6.5  1999     8 auto… 4        14    17 d     suv  
#> 15 chevrolet    malibu       2.4  1999     4 auto… f        19    27 r     mids…
#> 16 chevrolet    malibu       2.4  2008     4 auto… f        22    30 r     mids…
#> 17 chevrolet    malibu       3.1  1999     6 auto… f        18    26 r     mids…
#> 18 chevrolet    malibu       3.5  2008     6 auto… f        18    29 r     mids…
#> 19 chevrolet    malibu       3.6  2008     6 auto… f        17    26 r     mids…
#> 
#> $dodge
#> # A tibble: 37 × 11
#>    manufacturer model      displ  year   cyl trans drv     cty   hwy fl    class
#>    <chr>        <chr>      <dbl> <int> <int> <chr> <chr> <int> <int> <chr> <chr>
#>  1 dodge        caravan 2…   2.4  1999     4 auto… f        18    24 r     mini…
#>  2 dodge        caravan 2…   3    1999     6 auto… f        17    24 r     mini…
#>  3 dodge        caravan 2…   3.3  1999     6 auto… f        16    22 r     mini…
#>  4 dodge        caravan 2…   3.3  1999     6 auto… f        16    22 r     mini…
#>  5 dodge        caravan 2…   3.3  2008     6 auto… f        17    24 r     mini…
#>  6 dodge        caravan 2…   3.3  2008     6 auto… f        17    24 r     mini…
#>  7 dodge        caravan 2…   3.3  2008     6 auto… f        11    17 e     mini…
#>  8 dodge        caravan 2…   3.8  1999     6 auto… f        15    22 r     mini…
#>  9 dodge        caravan 2…   3.8  1999     6 auto… f        15    21 r     mini…
#> 10 dodge        caravan 2…   3.8  2008     6 auto… f        16    23 r     mini…
#> # ℹ 27 more rows
#> 
#> $ford
#> # A tibble: 25 × 11
#>    manufacturer model      displ  year   cyl trans drv     cty   hwy fl    class
#>    <chr>        <chr>      <dbl> <int> <int> <chr> <chr> <int> <int> <chr> <chr>
#>  1 ford         expeditio…   4.6  1999     8 auto… r        11    17 r     suv  
#>  2 ford         expeditio…   5.4  1999     8 auto… r        11    17 r     suv  
#>  3 ford         expeditio…   5.4  2008     8 auto… r        12    18 r     suv  
#>  4 ford         explorer …   4    1999     6 auto… 4        14    17 r     suv  
#>  5 ford         explorer …   4    1999     6 manu… 4        15    19 r     suv  
#>  6 ford         explorer …   4    1999     6 auto… 4        14    17 r     suv  
#>  7 ford         explorer …   4    2008     6 auto… 4        13    19 r     suv  
#>  8 ford         explorer …   4.6  2008     8 auto… 4        13    19 r     suv  
#>  9 ford         explorer …   5    1999     8 auto… 4        13    17 r     suv  
#> 10 ford         f150 pick…   4.2  1999     6 auto… 4        14    17 r     pick…
#> # ℹ 15 more rows
…
#>  3 subaru       forester …   2.5  2008     4 manu… 4        20    27 r     suv  
#>  4 subaru       forester …   2.5  2008     4 manu… 4        19    25 p     suv  
#>  5 subaru       forester …   2.5  2008     4 auto… 4        20    26 r     suv  
#>  6 subaru       forester …   2.5  2008     4 auto… 4        18    23 p     suv  
#>  7 subaru       impreza a…   2.2  1999     4 auto… 4        21    26 r     subc…
#>  8 subaru       impreza a…   2.2  1999     4 manu… 4        19    26 r     subc…
#>  9 subaru       impreza a…   2.5  1999     4 manu… 4        19    26 r     subc…
#> 10 subaru       impreza a…   2.5  1999     4 auto… 4        19    26 r     subc…
#> 11 subaru       impreza a…   2.5  2008     4 auto… 4        20    25 p     comp…
#> 12 subaru       impreza a…   2.5  2008     4 auto… 4        20    27 r     comp…
#> 13 subaru       impreza a…   2.5  2008     4 manu… 4        19    25 p     comp…
#> 14 subaru       impreza a…   2.5  2008     4 manu… 4        20    27 r     comp…
#> 
#> $toyota
#> # A tibble: 34 × 11
#>    manufacturer model      displ  year   cyl trans drv     cty   hwy fl    class
#>    <chr>        <chr>      <dbl> <int> <int> <chr> <chr> <int> <int> <chr> <chr>
#>  1 toyota       4runner 4…   2.7  1999     4 manu… 4        15    20 r     suv  
#>  2 toyota       4runner 4…   2.7  1999     4 auto… 4        16    20 r     suv  
#>  3 toyota       4runner 4…   3.4  1999     6 auto… 4        15    19 r     suv  
#>  4 toyota       4runner 4…   3.4  1999     6 manu… 4        15    17 r     suv  
#>  5 toyota       4runner 4…   4    2008     6 auto… 4        16    20 r     suv  
#>  6 toyota       4runner 4…   4.7  2008     8 auto… 4        14    17 r     suv  
#>  7 toyota       camry        2.2  1999     4 manu… f        21    29 r     mids…
#>  8 toyota       camry        2.2  1999     4 auto… f        21    27 r     mids…
#>  9 toyota       camry        2.4  2008     4 manu… f        21    31 r     mids…
#> 10 toyota       camry        2.4  2008     4 auto… f        21    31 r     mids…
#> # ℹ 24 more rows
#> 
#> $volkswagen
#> # A tibble: 27 × 11
#>    manufacturer model displ  year   cyl trans      drv     cty   hwy fl    class
#>    <chr>        <chr> <dbl> <int> <int> <chr>      <chr> <int> <int> <chr> <chr>
#>  1 volkswagen   gti     2    1999     4 manual(m5) f        21    29 r     comp…
#>  2 volkswagen   gti     2    1999     4 auto(l4)   f        19    26 r     comp…
#>  3 volkswagen   gti     2    2008     4 manual(m6) f        21    29 p     comp…
#>  4 volkswagen   gti     2    2008     4 auto(s6)   f        22    29 p     comp…
#>  5 volkswagen   gti     2.8  1999     6 manual(m5) f        17    24 r     comp…
#>  6 volkswagen   jetta   1.9  1999     4 manual(m5) f        33    44 d     comp…
#>  7 volkswagen   jetta   2    1999     4 manual(m5) f        21    29 r     comp…
#>  8 volkswagen   jetta   2    1999     4 auto(l4)   f        19    26 r     comp…
#>  9 volkswagen   jetta   2    2008     4 auto(s6)   f        22    29 p     comp…
#> 10 volkswagen   jetta   2    2008     4 manual(m6) f        21    29 p     comp…
#> # ℹ 17 more rows
…
