Getting started with daos • daos
…
flag_duplicates() – detect and label duplicate
rows

Base R’s duplicated() only marks the second occurrence
of a duplicate. flag_duplicates() marks all copies and
assigns them a shared group ID – making it easy to inspect all instances
at once. The ID can also serve as an implicit record linkage key: if
multiple respondents have reported the same information but background
data is missing for one person, the shared dupid reveals
the connection.

flag_duplicates(ggplot2::mpg)
#> # A tibble: 234 × 13
#>    isdup dupid manufacturer model      displ  year   cyl trans drv     cty   hwy
#>    <lgl> <int> <chr>        <chr>      <dbl> <int> <int> <chr> <chr> <int> <int>
#>  1 FALSE     0 audi         a4           1.8  1999     4 auto… f        18    29
#>  2 FALSE     0 audi         a4           1.8  1999     4 manu… f        21    29
#>  3 FALSE     0 audi         a4           2    2008     4 manu… f        20    31
#>  4 FALSE     0 audi         a4           2    2008     4 auto… f        21    30
#>  5 FALSE     0 audi         a4           2.8  1999     6 auto… f        16    26
#>  6 FALSE     0 audi         a4           2.8  1999     6 manu… f        18    26
#>  7 FALSE     0 audi         a4           3.1  2008     6 auto… f        18    27
#>  8 FALSE     0 audi         a4 quattro   1.8  1999     4 manu… 4        18    26
#>  9 FALSE     0 audi         a4 quattro   1.8  1999     4 auto… 4        16    25
#> 10 FALSE     0 audi         a4 quattro   2    2008     4 manu… 4        20    28
#> # ℹ 224 more rows
#> # ℹ 2 more variables: fl <chr>, class <chr>

# Check specific columns:
flag_duplicates(ggplot2::mpg, manufacturer, model, year) |>
  filter(isdup) |>
  arrange(dupid)
#> # A tibble: 227 × 13
#>    isdup dupid manufacturer model      displ  year   cyl trans drv     cty   hwy
#>    <lgl> <int> <chr>        <chr>      <dbl> <int> <int> <chr> <chr> <int> <int>
#>  1 TRUE      1 audi         a4           1.8  1999     4 auto… f        18    29
#>  2 TRUE      1 audi         a4           1.8  1999     4 manu… f        21    29
#>  3 TRUE      1 audi         a4           2.8  1999     6 auto… f        16    26
#>  4 TRUE      1 audi         a4           2.8  1999     6 manu… f        18    26
#>  5 TRUE      2 audi         a4           2    2008     4 manu… f        20    31
#>  6 TRUE      2 audi         a4           2    2008     4 auto… f        21    30
#>  7 TRUE      2 audi         a4           3.1  2008     6 auto… f        18    27
#>  8 TRUE      3 audi         a4 quattro   1.8  1999     4 manu… 4        18    26
#>  9 TRUE      3 audi         a4 quattro   1.8  1999     4 auto… 4        16    25
#> 10 TRUE      3 audi         a4 quattro   2.8  1999     6 auto… 4        15    25
#> # ℹ 217 more rows
#> # ℹ 2 more variables: fl <chr>, class <chr>
…
